https://www.walmart.com/ip/22750803?selected=true - EAI_AGAIN
Done!
https://www.walmart.com/ip/22471791?selected=true - EAI_AGAIN
Done!
Done!
0 'https://www.walmart.com/ip/22471791?selected=true'
1 'https://www.walmart.com/ip/43825027?selected=true'
2 'https://www.walmart.com/ip/17338152?selected=true'
3 'https://www.walmart.com/ip/28775105?selected=true'
4 'https://www.walmart.com/ip/45468285?selected=true'
5 'https://www.walmart.com/ip/14894496?selected=true'
6 'https://www.walmart.com/ip/47199850?selected=true'
7 'https://www.walmart.com/ip/36246159?selected=true'
8 'https://www.walmart.com/ip/36443234?selected=true'
9 'https://www.walmart.com/ip/44803118?selected=true'
10 'https://www.walmart.com/ip/20449514?selected=true'
11 'https://www.walmart.com/ip/26822427?selected=true'
12 'https://www.walmart.com/ip/36779629?selected=true'
13 'https://www.walmart.com/ip/20895771?selected=true'
14 'https://www.walmart.com/ip/33055036?selected=true'
15 'https://www.walmart.com/ip/34973682?selected=true'
16 'https://www.walmart.com/ip/13037962?selected=true'
17 'https://www.walmart.com/ip/43193275?selected=true'
18 'https://www.walmart.com/ip/22750803?selected=true'
19 'https://www.walmart.com/ip/19866896?selected=true'
Done!
